THIS NODE HAS AN ERROR: 
UNEXPECTED EOF ECHO
{$FOR i 1 10 1 $}
	a lot of nodes
	{$= i $}
	and even more
	{$FOR i 1 10 1 $}
		and when you
		{$= thought $}
		it's over
	{$END$}
	it's not
	{$FOR it "on" a $}
		very interesting 
		{$=even with more