THIS NODE HAS AN ERROR: 
ILLEGAL TYPE IN FOR TAG (NON-VAR)
{$FOR i 1 10 1 $}
	a lot of nodes
	{$= i $}
	and even more
	{$FOR _nijeVarijabla -2 5 1 $}
		and when you
		{$=think$}
		it's over
	{$END$}
	it's not
	{$FOR it goes "on" $}
		very interesting 
		{$=even with more echoes$}
	{$END$}
{$END$}